<?xml version="1.0" encoding="UTF-8" standalone="no"?>
<svg
   xmlns:dc="http://purl.org/dc/elements/1.1/"
   xmlns:cc="http://creativecommons.org/ns#"
   xmlns:rdf="http://www.w3.org/1999/02/22-rdf-syntax-ns#"
   xmlns:svg="http://www.w3.org/2000/svg"
   xmlns="http://www.w3.org/2000/svg"
   id="svg10"
   viewBox="0 0 120 105"
   version="1.1"
   height="105mm"
   width="120mm">
  <metadata
     id="metadata16">
    <rdf:RDF>
      <cc:Work
         rdf:about="">
        <dc:format>image/svg+xml</dc:format>
        <dc:type
           rdf:resource="http://purl.org/dc/dcmitype/StillImage" />
      </cc:Work>
    </rdf:RDF>
  </metadata>
  <defs
     id="defs14" />
  <rect
     id="rect2"
     fill="royalblue"
     rx="5"
     height="30"
     width="50"
     y="15"
     x="15" />
  <path
     stroke="purple"
     stroke-width="1.5"
     fill="red"
     d="m100.96 68.703-20.799-1.1756-12.76 16.461-5.3089-20.138-19.604-7.0445 17.518-11.27 0.64404-20.815 16.136 13.172 20.002-5.8198-7.5458 19.411z"
     id="MyStar" />
  <rect
     id="rect5"
     fill-opacity="0.7"
     fill="yellow"
     height="53"
     width="53"
     y="21"
     x="29" />
  <path
     id="path7"
     stroke="black"
     stroke-width="1"
     fill="green"
     d="M 56,69 A 18,18 0 0 1 38,87 18,18 0 0 1 20,69 18,18 0 0 1 38,51 18,18 0 0 1 56,69 Z" />
  <rect
     fill="none"
     height="60"
     width="70"
     y="18.5"
     x="24.5"
     id="MyRect" />
</svg>
