<?xml version="1.0" encoding="UTF-8" standalone="no"?>
<svg
   xmlns:dc="http://purl.org/dc/elements/1.1/"
   xmlns:cc="http://creativecommons.org/ns#"
   xmlns:rdf="http://www.w3.org/1999/02/22-rdf-syntax-ns#"
   xmlns:svg="http://www.w3.org/2000/svg"
   xmlns="http://www.w3.org/2000/svg"
   xmlns:sodipodi="http://sodipodi.sourceforge.net/DTD/sodipodi-0.dtd"
   xmlns:inkscape="http://www.inkscape.org/namespaces/inkscape"
   sodipodi:docname="areas.svg"
   id="svg10"
   viewBox="0 0 87.435127 72.5"
   version="1.1"
   height="72.5mm"
   width="87.435127mm">
  <metadata
     id="metadata16">
    <rdf:RDF>
      <cc:Work
         rdf:about="">
        <dc:format>image/svg+xml</dc:format>
        <dc:type
           rdf:resource="http://purl.org/dc/dcmitype/StillImage" />
      </cc:Work>
    </rdf:RDF>
  </metadata>
  <defs
     id="defs14" />
  <sodipodi:namedview
     id="namedview12"
     inkscape:window-height="480"
     inkscape:window-width="640"
     inkscape:pageshadow="2"
     inkscape:pageopacity="0"
     guidetolerance="10"
     gridtolerance="10"
     objecttolerance="10"
     borderopacity="1"
     bordercolor="#666666"
     pagecolor="#ffffff" />
  <rect
     id="rect2"
     fill="#4169e1"
     rx="5"
     height="30"
     width="50"
     y="-1.7763568e-15"
     x="-1.7763568e-15" />
  <path
     inkscape:connector-curvature="0"
     stroke="#800080"
     stroke-width="1.5"
     fill="#ff0000"
     d="m 85.96,53.703 -20.799,-1.1756 -12.76,16.461 -5.3089,-20.138 -19.604,-7.0445 17.518,-11.27 0.64404,-20.815 16.136,13.172 20.002,-5.8198 -7.5458,19.411 z"
     id="MyStar" />
  <rect
     id="rect5"
     fill-opacity="0.7"
     fill="#ffff00"
     height="53"
     width="53"
     y="6"
     x="14" />
  <path
     inkscape:connector-curvature="0"
     id="path7"
     stroke="#000000"
     stroke-width="1"
     fill="#008000"
     d="M 41,54 A 18,18 0 0 1 23,72 18,18 0 0 1 5,54 18,18 0 0 1 23,36 18,18 0 0 1 41,54 Z" />
  <rect
     inkscape:export-filename="export-use-hints.png"
     inkscape:export-xdpi="600"
     inkscape:export-ydpi="600"
     fill="none"
     height="60"
     width="70"
     y="3.5"
     x="9.5"
     id="MyRect" />
</svg>
